ISSS624 - Hands-On Ex 1
…
Dealing with Aspatial Data

Aspatial data are data not containing geographical coordinates, but may contain other form of x- y- coordinates. Here, we are using a data from AirBnb and we will try to transform it to Geographic Coordinate System.

listings <- read_csv("data/aspatial/listings.csv")

list(listings) 

[[1]]
# A tibble: 3,483 x 75
       id listing_url            scrape_id last_scraped source name  description
    <dbl> <chr>                      <dbl> <date>       <chr>  <chr> <chr>      
 1  71609 https://www.airbnb.co~   2.02e13 2023-09-23   previ~ Vill~ For 3 room~
 2  71896 https://www.airbnb.co~   2.02e13 2023-09-23   previ~ Home~ <b>The spa~
 3  71903 https://www.airbnb.co~   2.02e13 2023-09-23   previ~ Home~ Like your ~
 4 275343 https://www.airbnb.co~   2.02e13 2023-09-23   city ~ Rent~ **IMPORTAN~
 5 275344 https://www.airbnb.co~   2.02e13 2023-09-23   city ~ Rent~ Lovely hom~
 6 289234 https://www.airbnb.co~   2.02e13 2023-09-23   previ~ Home~ This whole~
 7 294281 https://www.airbnb.co~   2.02e13 2023-09-23   city ~ Rent~ I have 3 b~
 8 324945 https://www.airbnb.co~   2.02e13 2023-09-23   city ~ Rent~ **IMPORTAN~
 9 330095 https://www.airbnb.co~   2.02e13 2023-09-23   city ~ Rent~ **IMPORTAN~
10 369141 https://www.airbnb.co~   2.02e13 2023-09-23   city ~ Plac~ A room in ~
# i 3,473 more rows
# i 68 more variables: neighborhood_overview <chr>, picture_url <chr>,
#   host_id <dbl>, host_url <chr>, host_name <chr>, host_since <date>,
#   host_location <chr>, host_about <chr>, host_response_time <chr>,
#   host_response_rate <chr>, host_acceptance_rate <chr>,
#   host_is_superhost <lgl>, host_thumbnail_url <chr>, host_picture_url <chr>,
#   host_neighbourhood <chr>, host_listings_count <dbl>, ...
…
